// Jest Snapshot v1, https://goo.gl/fbAQLP

exports[`renders without crashing 1`] = `
<div
  className="App"
>
  <div
    style={
      Object {
        "margin": "10px",
      }
    }
  >
    <header
      style={
        Object {
          "margin": "10px 5px 10px 5px",
        }
      }
    >
      <nav>
        <a
          href="/atendimento"
          onClick={[Function]}
        >
          Atendimento
        </a>
         
        <a
          href="/relatorio"
          onClick={[Function]}
        >
          Relatório
        </a>
      </nav>
    </header>
  </div>
</div>
`;
